<svg xmlns="http://www.w3.org/2000/svg" xmlns:xlink="http://www.w3.org/1999/xlink" height="25" width="70">
  <defs>
    <rect id="rect-2" opacity="1" x="7.076687663323696" y="8.076687663324492" width="8.86557375505754" height="8.865573755057085"/>
    <mask id="mask-3" maskUnits="userSpaceOnUse" maskContentUnits="userSpaceOnUse">
      <rect opacity="1" x="0" y="0" width="70" height="25" fill="Black"/>
      <use xlink:href="#rect-2" fill="White"/>
    </mask>
  </defs>
  <g opacity="1">
    <g opacity="1">
      <path fill="rgb(252,115,66)" fill-opacity="1" opacity="1" fill-rule="evenodd" d="M3 0L67 0C68.655745073482 0 70 1.344254926518 70 3L70 22C70 23.655745073482 68.655745073482 25 67 25L3 25C1.3442549265180004 25 4.440892098500626e-16 23.655745073482 0 22L0 3C0 1.3442549265180004 1.3442549265179995 4.440892098500626e-16 2.9999999999999996 0Z"/>
    </g>
    <g opacity="1">
      <text font-size="0" transform="translate(22, 6)">
        <tspan font-size="11" font-family="Montserrat" font-weight="400" style="white-space: pre;text-transform: none" fill="rgb(255,255,255)" x="0" y="10">Upload</tspan>
      </text>
    </g>
    <g transform="translate(11.509474540852466, 12.509474540853034) scale(-1, -1) translate(-11.509474540852466, -12.509474540853034) translate(11.509474540852466, 12.509474540853034) rotate(269.00009618476093) translate(-11.509474540852466, -12.509474540853034)" opacity="1">
      <g/>
      <g mask="url(#mask-3)">
        <g opacity="1">
          <g opacity="1">
            <g opacity="1">
              <g opacity="1">
                <path fill="rgb(255,255,255)" fill-opacity="1" opacity="1" fill-rule="evenodd" d="M15.443915264377202 11.814247779433455L15.457754208775338 11.817275048520546L9.525315887769068 11.817275048520546L11.390257801089072 9.948224698582468C11.481580418549706 9.856974158957247 11.531674514157553 9.733360671234298 11.531674514157553 9.603620567501757C11.531674514157553 9.473880463769214 11.481580418549706 9.351131910071148 11.390257801089072 9.259665136939706L11.100072435740602 8.969335615920441C11.008821896115375 8.87808507629522 10.887226587783811 8.827630591510342 10.757558561886668 8.827630591510342C10.627818458154117 8.827630591510342 10.506151071987148 8.877724687118185 10.414900532361921 8.968975226743405L7.218032298556473 12.165555149207014C7.126421369754211 12.25716607800927 7.076327274146365 12.379193853353266 7.0766876633234 12.509006034921214C7.076327274146365 12.639538994843232 7.126421369754211 12.761638848022637 7.218032298556473 12.853105621154079L10.414900532361921 16.049973854959315C10.506151071987148 16.141152316749128 10.627746380318712 16.19131849019238 10.757558561886668 16.19131849019238C10.887226587783811 16.19131849019238 11.008821896115373 16.141080238913723 11.100072435740602 16.049973854959315L11.390257801089072 15.759644333940049C11.481580418549706 15.668537949985641 11.531674514157553 15.546870563818679 11.531674514157553 15.417130460086138C11.531674514157553 15.287462434189003 11.481580418549706 15.172209975373264 11.390257801089072 15.081031513583449L9.504269159830232 13.20152987751136L15.450546425234643 13.20152987751136C15.717738961088289 13.20152987751136 15.942261418381008 12.9712411933861 15.942261418381008 12.704192813203283L15.942261418381008 12.293565384889789C15.942261418381008 12.026517004706973 15.711107800230847 11.814247779433453 15.443915264377202 11.814247779433453L15.443915264377202 11.814247779433455Z"/>
              </g>
            </g>
          </g>
        </g>
      </g>
    </g>
  </g>
</svg>