<svg width="11" height="17" viewBox="0 0 11 17" fill="none" xmlns="http://www.w3.org/2000/svg">
<path fill-rule="evenodd" clip-rule="evenodd" d="M6.08929 16.6636L10.7562 11.7571C11.0813 11.4153 11.0813 10.8669 10.7562 10.5251C10.431 10.1833 9.90948 10.1833 9.58436 10.5251L6.33313 13.9433V0.875905C6.33313 0.391665 5.96059 0 5.5 0C5.03941 0 4.66687 0.391665 4.66687 0.875905V13.9362L1.41564 10.518C1.09052 10.1762 0.568966 10.1762 0.243842 10.518C-0.0812808 10.8598 -0.0812808 11.4081 0.243842 11.7499L4.91071 16.6564C5.07328 16.8274 5.28325 16.9128 5.5 16.9128C5.71675 16.9128 5.92672 16.8345 6.08929 16.6636Z" fill="#FC4263"/>
</svg>
