<svg width="31" height="31" viewBox="0 0 31 31" fill="none" xmlns="http://www.w3.org/2000/svg">
<path opacity="0.2" fill-rule="evenodd" clip-rule="evenodd" d="M15.5 31C24.0604 31 31 24.0604 31 15.5C31 6.93959 24.0604 0 15.5 0C6.93959 0 0 6.93959 0 15.5C0 24.0604 6.93959 31 15.5 31Z" fill="#3445CF"/>
<path fill-rule="evenodd" clip-rule="evenodd" d="M8.66667 7.75H11.875C12.3792 7.75 12.7917 8.1625 12.7917 8.66667C12.7917 9.8125 12.975 10.9125 13.3142 11.9392C13.415 12.26 13.3417 12.6175 13.085 12.8742L11.0683 14.8908C12.3883 17.485 14.515 19.6025 17.1092 20.9317L19.1258 18.915C19.3092 18.7408 19.5383 18.6492 19.7767 18.6492C19.8683 18.6492 19.9692 18.6583 20.0608 18.695C21.0875 19.0342 22.1967 19.2175 23.3333 19.2175C23.8375 19.2175 24.25 19.63 24.25 20.1342V23.3333C24.25 23.8375 23.8375 24.25 23.3333 24.25C14.7258 24.25 7.75 17.2742 7.75 8.66667C7.75 8.1625 8.1625 7.75 8.66667 7.75ZM10.995 9.58333C11.05 10.3992 11.1875 11.1967 11.4075 11.9575L10.3075 13.0575C9.9317 11.9575 9.69337 10.7933 9.61087 9.58333H10.995ZM20.0333 20.6017C20.8125 20.8217 21.61 20.9592 22.4166 21.0142V22.38C21.2066 22.2975 20.0425 22.0592 18.9333 21.6925L20.0333 20.6017Z" fill="#3445CF"/>
</svg>
