<svg width="22" height="22" viewBox="0 0 22 22" fill="none" xmlns="http://www.w3.org/2000/svg">
<circle cx="11" cy="11" r="11" fill="#ECEFF5"/>
<line x1="5" y1="11" x2="17" y2="11" stroke="#999BB3" stroke-width="2"/>
<line x1="11" y1="17" x2="11" y2="5" stroke="#999BB3" stroke-width="2"/>
</svg>
